<?xml version="1.0" encoding="utf-8"?>
<!-- Generator: Adobe Illustrator 21.0.2, SVG Export Plug-In . SVG Version: 6.00 Build 0)  -->
<svg version="1.1" id="Layer_1" xmlns="http://www.w3.org/2000/svg" xmlns:xlink="http://www.w3.org/1999/xlink" x="0px" y="0px"
	 viewBox="0 0 65.2 40.2" style="enable-background:new 0 0 65.2 40.2;" xml:space="preserve">
<style type="text/css">
	.st0{fill:#FFFFFF;}
</style>
<path class="st0" d="M63.5,9.4C63.4,6.9,61.2,5,58.7,5c-0.1,0-0.2,0-0.3,0l-5.1,0.3L53,3.8c-0.5-2.6-3-4.2-5.6-3.7L3.9,8.4
	c-2.6,0.5-4.3,3-3.8,5.6l4.4,22.3c0.5,2.6,3,4.2,5.6,3.7l3.5-0.7c0.8,0.5,1.7,0.8,2.6,0.8c0.1,0,0.2,0,0.3,0l44.2-3
	c2.7-0.2,4.6-2.4,4.5-5.1L63.5,9.4z M61.8,33.5c-0.3,0.4-0.8,0.6-1.3,0.6l-30.3,2l23.3-4.5c2.6-0.5,4.3-3,3.8-5.6L53.9,8.3L58.6,8
	c0,0,0.1,0,0.1,0c1,0,1.8,0.7,1.8,1.6l1.7,22.7C62.3,32.8,62.1,33.2,61.8,33.5z"/>
</svg>
